<svg xmlns="http://www.w3.org/2000/svg" width="34" height="34" viewBox="0 0 34 34">
    <g fill="none" fill-rule="evenodd" stroke="#510C76" transform="matrix(-1 0 0 1 33 1)">
        <circle cx="16" cy="16" r="16"/>
        <path stroke-linecap="round" stroke-linejoin="round" d="M19 9l-7 6.5 7 6.5"/>
    </g>
</svg>
