<svg xmlns="http://www.w3.org/2000/svg" width="358" height="291" viewBox="0 0 358 291">
    <defs>
        <filter id="a" width="107.5%" height="107.5%" x="-3.8%" y="-3.8%" filterUnits="objectBoundingBox">
            <feGaussianBlur in="SourceGraphic" stdDeviation="5.619"/>
        </filter>
        <filter id="b" width="110.7%" height="110.7%" x="-5.3%" y="-5.3%" filterUnits="objectBoundingBox">
            <feGaussianBlur in="SourceGraphic" stdDeviation="5.619"/>
        </filter>
        <filter id="c" width="117.9%" height="117.9%" x="-8.9%" y="-8.9%" filterUnits="objectBoundingBox">
            <feGaussianBlur in="SourceGraphic" stdDeviation="5.619"/>
        </filter>
    </defs>
    <g fill="none" fill-rule="evenodd" stroke="#FFF" stroke-width="7" opacity=".103" transform="translate(17 17)">
        <circle cx="271" cy="271" r="271" filter="url(#a)"/>
        <circle cx="271" cy="271" r="191" filter="url(#b)"/>
        <circle cx="274" cy="274" r="114" filter="url(#c)"/>
    </g>
</svg>
