<svg xmlns="http://www.w3.org/2000/svg" width="12" height="12" viewBox="0 0 12 12">
    <path fill="#510C76" fill-rule="evenodd" d="M5.583.897h.913v3.775h-.913V.897zm5.791 4.655v.913H7.598v-.913h3.776zm-4.772 5.9h-.913V7.678h.913v3.776zM.811 6.798v-.913h3.775v.913H.811z"/>
</svg>
