<?xml version="1.0" encoding="UTF-8"?>
<svg width="32px" height="18px" viewBox="0 0 32 18" version="1.1" xmlns="http://www.w3.org/2000/svg" xmlns:xlink="http://www.w3.org/1999/xlink">
    <!-- Generator: Sketch 49.3 (51167) - http://www.bohemiancoding.com/sketch -->
    <title>Shape</title>
    <desc>Created with Sketch.</desc>
    <defs></defs>
    <g id="Page-1" stroke="none" stroke-width="1" fill="none" fill-rule="evenodd">
        <g id="Desktop-HD" transform="translate(-579.000000, -8186.000000)" fill="#FFFFFF" fill-rule="nonzero">
            <g id="footer" transform="translate(-3.000000, 7801.000000)">
                <g id="Group-16" transform="translate(471.000000, 367.000000)">
                    <g id="vk" transform="translate(100.750000, 0.000000)">
                        <path d="M40.4357917,36 L35.827125,36 C35.0534167,36 34.3275,35.7004286 33.781125,35.1565714 L31.099625,32.4874286 C30.8800417,32.2688571 30.5752083,32.1428571 30.2652083,32.1428571 C29.6142083,32.1428571 29.084625,32.67 29.084625,33.318 L29.084625,34.4198571 C29.084625,35.2915714 28.3729167,36 27.4971667,36 L23.2708333,36 C20.3129167,36 15.5621667,29.3862857 12.096625,23.8384286 C11.3784583,22.6877143 11,21.3582857 11,19.9954286 L11,19.6675714 C11,18.7482857 11.75175,18 12.6752917,18 L16.8125,18 C17.0553333,18 17.2787917,18.1362857 17.3885833,18.3522857 C18.296625,20.1368571 20.8567083,24.9724286 21.7892917,25.902 C22.0269583,26.1372857 22.2555833,26.2761429 22.40025,26.2478571 C22.4855,26.2401429 22.5655833,26.1861429 22.625,26.1308571 L22.625,21.249 C22.625,20.5688571 22.3589167,19.9311429 21.8758333,19.4502857 L21.5219167,19.098 C21.3372083,18.9141429 21.2816667,18.6377143 21.3824167,18.3972857 C21.481875,18.1568571 21.71825,18 21.9791667,18 L27.67025,18 C28.449125,18 29.0833333,18.6312857 29.0833333,19.4065714 L29.0833333,25.983 C29.441125,26.1475714 30.0817917,26.3352857 30.588125,25.8814286 C31.1293333,25.3928571 32.479125,22.7147143 34.0239583,19.0568571 C34.2952083,18.4152857 34.92425,18 35.6269167,18 L40.1580833,18 C41.1733333,18 42,18.8228571 42,19.8347143 C42,20.8697143 41.6422083,21.8854286 40.9925,22.6941429 L36.8333333,27.8691429 L36.8333333,28.6637143 L41.5401667,33.3488571 C41.988375,33.795 42.1214167,34.4597143 41.8785833,35.0421429 C41.63575,35.6232857 41.07,36 40.4357917,36 Z M30.2639167,30.8571429 C30.9239583,30.8571429 31.54525,31.113 32.0128333,31.5784286 L34.6943333,34.2475714 C34.9927083,34.5445714 35.4060417,34.7142857 35.827125,34.7142857 L40.4357917,34.7142857 C40.593375,34.7142857 40.65925,34.6101429 40.6850833,34.5484286 C40.7109167,34.4867143 40.7380417,34.3658571 40.6269583,34.2552857 L35.7315417,29.3824286 C35.610125,29.2628571 35.5416667,29.0995714 35.5416667,28.9285714 L35.5416667,27.6428571 C35.5416667,27.4962857 35.5920417,27.3548571 35.6824583,27.2404286 L39.9837083,21.8892857 C40.4512917,21.3094286 40.7083333,20.5791429 40.7083333,19.8347143 C40.7083333,19.5325714 40.461625,19.2857143 40.1567917,19.2857143 L35.625625,19.2857143 C35.4447917,19.2857143 35.2820417,19.3911429 35.2135833,19.5544286 C34.002,22.4202857 32.36675,26.01 31.4535417,26.8328571 C30.2561667,27.9115714 28.712625,27.3355714 28.0655,26.8817143 C27.8937083,26.7634286 27.7916667,26.5667143 27.7916667,26.3571429 L27.7916667,19.4065714 C27.7916667,19.3397143 27.7374167,19.2857143 27.67025,19.2857143 L23.3754583,19.2857143 C23.7280833,19.8732857 23.9166667,20.547 23.9166667,21.249 L23.9166667,26.3571429 C23.9166667,26.4741429 23.8856667,26.5885714 23.8249583,26.6875714 C23.77975,26.7634286 23.3586667,27.4268571 22.563,27.5232857 C21.9946667,27.5952857 21.4224583,27.3548571 20.8760833,26.811 C19.753625,25.6937143 17.172875,20.7565714 16.4159583,19.2844286 L12.6752917,19.2844286 C12.4634583,19.2857143 12.2916667,19.458 12.2916667,19.6675714 L12.2916667,19.9954286 C12.2916667,21.1191429 12.60425,22.2132857 13.1945417,23.1595714 C17.645625,30.2862857 21.5064167,34.7142857 23.2708333,34.7142857 L27.495875,34.7142857 C27.658625,34.7142857 27.7916667,34.5818571 27.7916667,34.4198571 L27.7916667,33.318 C27.7916667,31.9615714 28.9012083,30.8571429 30.2639167,30.8571429 Z" id="Shape"></path>
                    </g>
                </g>
            </g>
        </g>
    </g>
</svg>